0 -17.30000000 0
1 -17.84154177 2
2 -17.89953375 6
3 -18.13903191 8
4 -18.16060030 12
5 -18.18544486 20
6 -18.21439111 26
7 -18.25502780 32
8 -18.27992467 40
9 -18.28325220 44
10 -18.29755360 50
11 -18.30189032 58
12 -18.30583431 66
13 -18.31084534 70
14 -18.31477898 74
15 -18.31643526 78
16 -18.31701849 84
17 -18.31751459 90
18 -18.32603743 96
19 -18.33472958 98
20 -18.34299750 106
21 -18.34966161 108
22 -18.35439525 112
23 -18.36047366 116
24 -18.36245414 122
25 -18.36281844 128
26 -18.36358224 132
27 -18.36398813 140
28 -18.36406162 144
29 -18.36418586 150
30 -18.36420712 156
31 -18.36425689 160
32 -18.36425689 164
